{
    "type": "minecraft:generic",
    "pools": [
        {
            "functions": [
                {
                    "function": "minecraft:set_name",
                    "name": {"translate": "item.hats.frying_pan.name"}
                },
                {
                    "function": "set_nbt",
                    "tag": "{CustomModelData:3003, Tags:[\"is_hat\", \"hats.hat\", \"hats.hat.type.frying_pan\"]}"
                }
            ],
            "rolls": 1,
            "entries": [
                {
                    "type": "minecraft:loot_table",
                    "name": "hats:hat/_hat_base"
                }
            ]
        }
    ]
}