{
	"parent" : "hats:root",
	"display" : {
		"icon": {
			"item": "minecraft:stick",
			"nbt": "{CustomModelData:3152}"
		  },
		"title" : {
			"translate": "advancements.hats.player_masks.title"
		},
		"description" : {
			"translate": "advancements.hats.player_masks.description"
		},
		"frame": "goal",
		"show_toast": true,
		"announce_to_chat": false,
		"hidden": false
	},
	"criteria" : {
		"steve_mask" : {
			"trigger" : "minecraft:inventory_changed",
			"conditions" : {
				"items": [
					{ "nbt": "{Tags:[\"is_hat\"], CustomModelData:3151}" }
				]
			}
		},
		"alex_mask" : {
			"trigger" : "minecraft:inventory_changed",
			"conditions" : {
				"items": [
					{ "nbt": "{Tags:[\"is_hat\"], CustomModelData:3152}" }
				]
			}
		}
	},
	"requirements" : [["steve_mask", "alex_mask"]]
}