{
    "type": "minecraft:generic",
    "pools": [
        {
            "functions": [
                {
                    "function": "minecraft:set_name",
                    "name": {
                        "translate": "item.hats.tophats.light_blue.name"
                    }
                },
                {
                    "function": "set_nbt",
                    "tag": "{CustomModelData:3103, Tags:[\"is_hat\", \"hats.hat\", \"hats.hat.type.tophat_light_blue\"]}"
                }
            ],
            "rolls": 1,
            "entries": [
                {
                    "type": "minecraft:loot_table",
                    "name": "hats:hat_on_head/_hat_base"
                }
            ]
        }
    ]
}