{
	"__comment": "Created by Oran9eUtan https://www.youtube.com/channel/UCb6GapmiHbzqJszTxGWpgzA",
	"parent": "item/hats/glasses/_glasses",
	"textures": {
		"particle": "item/hats/glasses/harry_potter",
		"accessory": "item/hats/glasses/harry_potter"
	}
}