{
    "type": "generic",
    "pools": [
        {
            "rolls": 1,
            "entries": [
                {
                    "weight": 3,
                    "type": "empty"
                },
                {
                    "type": "group",
                    "name": "glasses",
                    "children": [
                        {
                            "weight": 1,
                            "type": "minecraft:loot_table",
                            "name": "hats:hat/glasses/half_rim"
                        },
                        {
                            "weight": 1,
                            "type": "minecraft:loot_table",
                            "name": "hats:hat/glasses/rainbow"
                        },
                        {
                            "weight": 1,
                            "type": "minecraft:loot_table",
                            "name": "hats:hat/glasses/librarian"
                        }
                    ]
                }
            ]
        }
    ]
}